{
  "project_info": {
    "project_number": "102447520510",
    "firebase_url": "https://faisalfurniture-a0280.firebaseio.com",
    "project_id": "faisalfurniture-a0280",
    "storage_bucket": "faisalfurniture-a0280.appspot.com"
  },
  "client": [
    {
      "client_info": {
        "mobilesdk_app_id": "1:102447520510:android:0bc70351e9a55fc0ece3af",
        "android_client_info": {
          "package_name": "com.faisalfurniture"
        }
      },
      "oauth_client": [
        {
          "client_id": "102447520510-vaupsbt1qfqnvs9h9ghcs2g4oasss32b.apps.googleusercontent.com",
          "client_type": 1,
          "android_info": {
            "package_name": "com.faisalfurniture",
            "certificate_hash": "bc6d53db0ccd5ab63be4d562a523e8377a513444"
          }
        },
        {
          "client_id": "102447520510-pmnf5v3s6uhg782ld8gp9c013mt8m0aa.apps.googleusercontent.com",
          "client_type": 3
        }
      ],
      "api_key": [
        {
          "current_key": "AIzaSyDDymd780g00c1SLp4q5p80ejtB32RrDwU"
        }
      ],
      "services": {
        "appinvite_service": {
          "other_platform_oauth_client": [
            {
              "client_id": "102447520510-pmnf5v3s6uhg782ld8gp9c013mt8m0aa.apps.googleusercontent.com",
              "client_type": 3
            }
          ]
        }
      }
    }
  ],
  "configuration_version": "1"
}